…
ventral.go <- read_delim("ventral.go.txt", 
    "\t", escape_double = FALSE, col_names = c("go", "ref", "obs", "expected", "pos.neg", "fold.enrich", "raw.p.value", "fdr"), 
    trim_ws = TRUE, skip = 12)
```

#### Writing the GO termstable

``` r
#Merging all tables into a single mega table with all the data. Instead of creating a column called "identity" on line 238, you can name it to whatever you are comparing (Could be "identity" as you will be comparing NSC and parenchymal astrocytes)
go.cat.n <- nrow(b.dorsal.go)
go.data <- do.call("rbind", list(b.dorsal.go, b.ventral.go, a.dorsal.go, a.ventral.go, dorsal.go, ventral.go))
go.data %>% mutate(fold.enrich = go.data$obs/go.data$expected)
```

    ## # A tibble: 94,694 x 8
    ##    go                   ref   obs expected pos.neg fold.enrich raw.p.value   fdr
    ##    <chr>              <dbl> <dbl>    <dbl> <chr>         <dbl>       <dbl> <dbl>
    ##  1 posterior midgut …     1     1     0.01 +               100      0.0101 0.402
    ##  2 coronal suture mo…     1     1     0.01 +               100      0.0101 0.401
    ##  3 regulation of ade…     1     1     0.01 +               100      0.0101 0.4  
    ##  4 midbrain-hindbrai…     1     1     0.01 +               100      0.0101 0.399
    ##  5 prechordal plate …     1     1     0.01 +               100      0.0101 0.398
    ##  6 positive regulati…     1     1     0.01 +               100      0.0101 0.397
    ##  7 vestibular recept…     1     1     0.01 +               100      0.0101 0.396
    ##  8 FasL biosynthetic…     1     1     0.01 +               100      0.0101 0.395
    ##  9 positive regulati…     1     1     0.01 +               100      0.0101 0.394
    ## 10 positive regulati…     1     1     0.01 +               100      0.0101 0.393
    ## # … with 94,684 more rows
…
